{
    
    "web":{
        
        "client_id":"531744349076-9r2cih0ooui86hvt2e39s8evgi8l9ppp.apps.googleusercontent.com",
        "project_id":"club-de-mentores",
        "auth_uri":"https://accounts.google.com/o/oauth2/auth",
        "token_uri":"https://accounts.google.com/o/oauth2/token",
        "auth_provider_x509_cert_url":"https://www.googleapis.com/oauth2/v1/certs",
        "client_secret":"CHnIQnh0JYDDzypy7EQJFmRE"
    }
    
}